#include "gamemode_cts.qh"
#include <server/race.qh>

#ifndef GAMEMODE_CTS_H
#define GAMEMODE_CTS_H

void cts_Initialize();

REGISTER_MUTATOR(cts, false)
{
	MUTATOR_ONADD
	{
		if (time > 1) // game loads at time 1
			error("This is a game type and it cannot be added at runtime.");

		g_race_qualifying = true;
		independent_players = 1;
		SetLimits(0, 0, autocvar_timelimit_override, -1);

		cts_Initialize();
	}

	MUTATOR_ONROLLBACK_OR_REMOVE
	{
		// we actually cannot roll back cts_Initialize here
		// BUT: we don't need to! If this gets called, adding always
		// succeeds.
	}

	MUTATOR_ONREMOVE
	{
		LOG_INFO("This is a game type and it cannot be removed at runtime.");
		return -1;
	}

	return 0;
}

// scores
const float ST_CTS_LAPS = 1;
const float SP_CTS_LAPS = 4;
const float SP_CTS_TIME = 5;
const float SP_CTS_FASTEST = 6;
#endif

#ifdef IMPLEMENTATION

#include <server/race.qh>

float autocvar_g_cts_finish_kill_delay;
bool autocvar_g_cts_selfdamage;

// legacy bot roles
.float race_checkpoint;
void havocbot_role_cts(entity this)
{
	if(IS_DEAD(this))
		return;

	if (this.bot_strategytime < time)
	{
		this.bot_strategytime = time + autocvar_bot_ai_strategyinterval;
		navigation_goalrating_start(this);

		FOREACH_ENTITY_CLASS("trigger_race_checkpoint", true,
		{
			if(it.cnt == this.race_checkpoint)
				navigation_routerating(this, it, 1000000, 5000);
			else if(this.race_checkpoint == -1)
				navigation_routerating(this, it, 1000000, 5000);
		});

		navigation_goalrating_end(this);
	}
}

void cts_ScoreRules()
{
	ScoreRules_basics(0, 0, 0, false);
	if(g_race_qualifying)
	{
		ScoreInfo_SetLabel_PlayerScore(SP_CTS_FASTEST, "fastest",   SFL_SORT_PRIO_PRIMARY | SFL_LOWER_IS_BETTER | SFL_TIME);
	}
	else
	{
		ScoreInfo_SetLabel_PlayerScore(SP_CTS_LAPS,    "laps",      SFL_SORT_PRIO_PRIMARY);
		ScoreInfo_SetLabel_PlayerScore(SP_CTS_TIME,    "time",      SFL_SORT_PRIO_SECONDARY | SFL_LOWER_IS_BETTER | SFL_TIME);
		ScoreInfo_SetLabel_PlayerScore(SP_CTS_FASTEST, "fastest",   SFL_LOWER_IS_BETTER | SFL_TIME);
	}
	ScoreRules_basics_end();
}

void cts_EventLog(string mode, entity actor) // use an alias for easy changing and quick editing later
{
	if(autocvar_sv_eventlog)
		GameLogEcho(strcat(":cts:", mode, ":", ((actor != NULL) ? (strcat(":", ftos(actor.playerid))) : "")));
}

void KillIndicator_Think(entity this);
void CTS_ClientKill(entity e) // silent version of ClientKill, used when player finishes a CTS run. Useful to prevent cheating by running back to the start line and starting out with more speed
{
    e.killindicator = spawn();
    e.killindicator.owner = e;
    setthink(e.killindicator, KillIndicator_Think);
    e.killindicator.nextthink = time + (e.lip) * 0.05;
    e.killindicator.cnt = ceil(autocvar_g_cts_finish_kill_delay);
    e.killindicator.health = 1; // this is used to indicate that it should be silent
    e.lip = 0;
}

MUTATOR_HOOKFUNCTION(cts, PlayerPhysics)
{
	entity player = M_ARGV(0, entity);

	player.race_movetime_frac += PHYS_INPUT_TIMELENGTH;
	float f = floor(player.race_movetime_frac);
	player.race_movetime_frac -= f;
	player.race_movetime_count += f;
	player.race_movetime = player.race_movetime_frac + player.race_movetime_count;

#ifdef SVQC
	if(IS_PLAYER(player))
	{
		if (player.race_penalty)
			if (time > player.race_penalty)
				player.race_penalty = 0;
		if(player.race_penalty)
		{
			player.velocity = '0 0 0';
			player.movetype = MOVETYPE_NONE;
			player.disableclientprediction = 2;
		}
	}
#endif

	// force kbd movement for fairness
	float wishspeed;
	vector wishvel;

	// if record times matter
	// ensure nothing EVIL is being done (i.e. div0_evade)
	// this hinders joystick users though
	// but it still gives SOME analog control
	wishvel.x = fabs(player.movement.x);
	wishvel.y = fabs(player.movement.y);
	if(wishvel.x != 0 && wishvel.y != 0 && wishvel.x != wishvel.y)
	{
		wishvel.z = 0;
		wishspeed = vlen(wishvel);
		if(wishvel.x >= 2 * wishvel.y)
		{
			// pure X motion
			if(player.movement.x > 0)
				player.movement_x = wishspeed;
			else
				player.movement_x = -wishspeed;
			player.movement_y = 0;
		}
		else if(wishvel.y >= 2 * wishvel.x)
		{
			// pure Y motion
			player.movement_x = 0;
			if(player.movement.y > 0)
				player.movement_y = wishspeed;
			else
				player.movement_y = -wishspeed;
		}
		else
		{
			// diagonal
			if(player.movement.x > 0)
				player.movement_x = M_SQRT1_2 * wishspeed;
			else
				player.movement_x = -M_SQRT1_2 * wishspeed;
			if(player.movement.y > 0)
				player.movement_y = M_SQRT1_2 * wishspeed;
			else
				player.movement_y = -M_SQRT1_2 * wishspeed;
		}
	}
}

MUTATOR_HOOKFUNCTION(cts, reset_map_global)
{
	float s;

	Score_NicePrint(NULL);

	race_ClearRecords();
	PlayerScore_Sort(race_place, 0, 1, 0);

	FOREACH_CLIENT(true, LAMBDA(
		if(it.race_place)
		{
			s = PlayerScore_Add(it, SP_RACE_FASTEST, 0);
			if(!s)
				it.race_place = 0;
		}
		cts_EventLog(ftos(it.race_place), it);
	));

	if(g_race_qualifying == 2)
	{
		g_race_qualifying = 0;
		independent_players = 0;
		cvar_set("fraglimit", ftos(race_fraglimit));
		cvar_set("leadlimit", ftos(race_leadlimit));
		cvar_set("timelimit", ftos(race_timelimit));
		cts_ScoreRules();
	}
}

MUTATOR_HOOKFUNCTION(cts, ClientConnect)
{
	entity player = M_ARGV(0, entity);

	race_PreparePlayer(player);
	player.race_checkpoint = -1;

	if(IS_REAL_CLIENT(player))
	{
		string rr = CTS_RECORD;

		msg_entity = player;
		race_send_recordtime(MSG_ONE);
		race_send_speedaward(MSG_ONE);

		speedaward_alltimebest = stof(db_get(ServerProgsDB, strcat(GetMapname(), rr, "speed/speed")));
		speedaward_alltimebest_holder = uid2name(db_get(ServerProgsDB, strcat(GetMapname(), rr, "speed/crypto_idfp")));
		race_send_speedaward_alltimebest(MSG_ONE);

		float i;
		for (i = 1; i <= RANKINGS_CNT; ++i)
		{
			race_SendRankings(i, 0, 0, MSG_ONE);
		}
	}
}

MUTATOR_HOOKFUNCTION(cts, MakePlayerObserver)
{
	entity player = M_ARGV(0, entity);

	if(PlayerScore_Add(player, SP_RACE_FASTEST, 0))
		player.frags = FRAGS_LMS_LOSER;
	else
		player.frags = FRAGS_SPECTATOR;

	race_PreparePlayer(player);
	player.race_checkpoint = -1;
}

MUTATOR_HOOKFUNCTION(cts, PlayerSpawn)
{
	entity player = M_ARGV(0, entity);
	entity spawn_spot = M_ARGV(1, entity);

	if(spawn_spot.target == "")
		// Emergency: this wasn't a real spawnpoint. Can this ever happen?
		race_PreparePlayer(player);

	// if we need to respawn, do it right
	player.race_respawn_checkpoint = player.race_checkpoint;
	player.race_respawn_spotref = spawn_spot;

	player.race_place = 0;
}

MUTATOR_HOOKFUNCTION(cts, PutClientInServer)
{
	entity player = M_ARGV(0, entity);

	if(IS_PLAYER(player))
	if(!gameover)
	{
		if(player.killcount == FRAGS_SPECTATOR /* initial spawn */ || g_race_qualifying) // spawn
			race_PreparePlayer(player);
		else // respawn
			race_RetractPlayer(player);

		race_AbandonRaceCheck(player);
	}
}

MUTATOR_HOOKFUNCTION(cts, PlayerDies)
{
	entity frag_target = M_ARGV(2, entity);
	
	frag_target.respawn_flags |= RESPAWN_FORCE;
	race_AbandonRaceCheck(frag_target);
}

MUTATOR_HOOKFUNCTION(cts, HavocBot_ChooseRole)
{
	entity bot = M_ARGV(0, entity);

	bot.havocbot_role = havocbot_role_cts;
	return true;
}

MUTATOR_HOOKFUNCTION(cts, GetPressedKeys)
{
	entity player = M_ARGV(0, entity);

	if(player.cvar_cl_allow_uidtracking == 1 && player.cvar_cl_allow_uid2name == 1)
	{
		if (!player.stored_netname)
			player.stored_netname = strzone(uid2name(player.crypto_idfp));
		if(player.stored_netname != player.netname)
		{
			db_put(ServerProgsDB, strcat("/uid2name/", player.crypto_idfp), player.netname);
			strunzone(player.stored_netname);
			player.stored_netname = strzone(player.netname);
		}
	}

	if (!IS_OBSERVER(player))
	{
		if(vdist(player.velocity - player.velocity_z * '0 0 1', >, speedaward_speed))
		{
			speedaward_speed = vlen(player.velocity - player.velocity_z * '0 0 1');
			speedaward_holder = player.netname;
			speedaward_uid = player.crypto_idfp;
			speedaward_lastupdate = time;
		}
		if (speedaward_speed > speedaward_lastsent && time - speedaward_lastupdate > 1)
		{
			string rr = CTS_RECORD;
			race_send_speedaward(MSG_ALL);
			speedaward_lastsent = speedaward_speed;
			if (speedaward_speed > speedaward_alltimebest && speedaward_uid != "")
			{
				speedaward_alltimebest = speedaward_speed;
				speedaward_alltimebest_holder = speedaward_holder;
				speedaward_alltimebest_uid = speedaward_uid;
				db_put(ServerProgsDB, strcat(GetMapname(), rr, "speed/speed"), ftos(speedaward_alltimebest));
				db_put(ServerProgsDB, strcat(GetMapname(), rr, "speed/crypto_idfp"), speedaward_alltimebest_uid);
				race_send_speedaward_alltimebest(MSG_ALL);
			}
		}
	}
}

MUTATOR_HOOKFUNCTION(cts, ForbidThrowCurrentWeapon)
{
	// no weapon dropping in CTS
	return true;
}

MUTATOR_HOOKFUNCTION(cts, FilterItem)
{
	entity item = M_ARGV(0, entity);

	if(item.classname == "droppedweapon")
		return true;
}

MUTATOR_HOOKFUNCTION(cts, PlayerDamage_Calculate)
{
	entity frag_attacker = M_ARGV(1, entity);
	entity frag_target = M_ARGV(2, entity);
	float frag_deathtype = M_ARGV(3, float);
	float frag_damage = M_ARGV(4, float);

	if(frag_target == frag_attacker || frag_deathtype == DEATH_FALL.m_id)
	if(!autocvar_g_cts_selfdamage)
	{
		frag_damage = 0;
		M_ARGV(4, float) = frag_damage;
	}
}

MUTATOR_HOOKFUNCTION(cts, ForbidPlayerScore_Clear)
{
	return true; // in CTS, you don't lose score by observing
}

MUTATOR_HOOKFUNCTION(cts, GetRecords)
{
	int record_page = M_ARGV(0, int);
	string ret_string = M_ARGV(1, string);

	for(int i = record_page * 200; i < MapInfo_count && i < record_page * 200 + 200; ++i)
	{
		if(MapInfo_Get_ByID(i))
		{
			float r = race_readTime(MapInfo_Map_bspname, 1);

			if(!r)
				continue;

			string h = race_readName(MapInfo_Map_bspname, 1);
			ret_string = strcat(ret_string, strpad(32, MapInfo_Map_bspname), " ", strpad(-8, TIME_ENCODED_TOSTRING(r)), " ", h, "\n");
		}
	}

	M_ARGV(1, string) = ret_string;
}

void ClientKill_Now(entity this);
MUTATOR_HOOKFUNCTION(cts, ClientKill)
{
    entity player = M_ARGV(0, entity);

	M_ARGV(1, float) = 0; // kill delay

	if(player.killindicator && player.killindicator.health == 1) // player.killindicator.health == 1 means that the kill indicator was spawned by CTS_ClientKill
	{
		remove(player.killindicator);
		player.killindicator = NULL;

		ClientKill_Now(player); // allow instant kill in this case
		return;
	}
}

MUTATOR_HOOKFUNCTION(cts, Race_FinalCheckpoint)
{
	entity player = M_ARGV(0, entity);

	if(autocvar_g_cts_finish_kill_delay)
		CTS_ClientKill(player);
}

MUTATOR_HOOKFUNCTION(cts, FixClientCvars)
{
	entity player = M_ARGV(0, entity);

	stuffcmd(player, "cl_cmd settemp cl_movecliptokeyboard 2\n");
}

MUTATOR_HOOKFUNCTION(cts, WantWeapon)
{
	M_ARGV(1, float) = (M_ARGV(0, entity) == WEP_SHOTGUN); // want weapon = weapon info
	M_ARGV(3, bool) = true; // want mutator blocked
	return true;
}

void cts_Initialize()
{
	cts_ScoreRules();
}

#endif
